[
  {
    "name": "pro6pp-key",
    "urlPatterns": "https://api.pro6pp.nl/v2/autocomplete/nl",
    "authenticationMethod": "query-parameter",
    "identifier": "authKey",
    "secret": "{{ PRO6PP_KEY_TBV }}"
  }
]
